<?xml version="1.0" encoding="UTF-8" standalone="no"?>
<svg
   xmlns:dc="http://purl.org/dc/elements/1.1/"
   xmlns:cc="http://creativecommons.org/ns#"
   xmlns:rdf="http://www.w3.org/1999/02/22-rdf-syntax-ns#"
   xmlns:svg="http://www.w3.org/2000/svg"
   xmlns="http://www.w3.org/2000/svg"
   xmlns:sodipodi="http://sodipodi.sourceforge.net/DTD/sodipodi-0.dtd"
   xmlns:inkscape="http://www.inkscape.org/namespaces/inkscape"
   width="150"
   height="150"
   viewBox="0 0 39.687499 39.687501"
   version="1.1"
   id="svg8"
   inkscape:version="1.0.2 (e86c870879, 2021-01-15, custom)"
   sodipodi:docname="xing.svg">
  <defs
     id="defs2" />
  <sodipodi:namedview
     id="base"
     pagecolor="#ffffff"
     bordercolor="#666666"
     borderopacity="1.0"
     inkscape:pageopacity="0.0"
     inkscape:pageshadow="2"
     inkscape:zoom="0.17066272"
     inkscape:cx="-1481.1516"
     inkscape:cy="323.46265"
     inkscape:document-units="mm"
     inkscape:current-layer="layer1"
     inkscape:document-rotation="0"
     showgrid="false"
     units="px"
     inkscape:window-width="2496"
     inkscape:window-height="1057"
     inkscape:window-x="1912"
     inkscape:window-y="-8"
     inkscape:window-maximized="1" />
  <metadata
     id="metadata5">
    <rdf:RDF>
      <cc:Work
         rdf:about="">
        <dc:format>image/svg+xml</dc:format>
        <dc:type
           rdf:resource="http://purl.org/dc/dcmitype/StillImage" />
        <dc:title></dc:title>
      </cc:Work>
    </rdf:RDF>
  </metadata>
  <g
     inkscape:label="Ebene 1"
     inkscape:groupmode="layer"
     id="layer1">
    <path
       style="fill:#ffffff;fill-opacity:1;stroke:none;stroke-width:0.0578507px;stroke-linecap:butt;stroke-linejoin:miter;stroke-opacity:1"
       d="M 9.6126619,10.640248 H 14.31613 c 0.4852,0.0049 0.783892,0.178355 0.966501,0.480271 l 3.335826,5.85483 -5.125948,8.979632 c -0.184601,0.292939 -0.452453,0.356933 -0.737129,0.374666 l -4.9232877,0.0049 c -0.653697,-0.08636 -0.6946728,-0.564241 -0.459719,-0.94317 L 12.193405,16.914794 9.0506538,11.49856 c -0.161869,-0.376808 0.03583,-0.866064 0.5620081,-0.858312 z"
       id="path847"
       sodipodi:nodetypes="ccccccccccc" />
    <path
       style="fill:#ffffff;fill-opacity:1;stroke:none;stroke-width:0.0578507px;stroke-linecap:butt;stroke-linejoin:miter;stroke-opacity:1"
       d="m 27.734709,4.9258512 c 0.09582,-0.2051122 0.342533,-0.4821371 0.653178,-0.4693426 l 4.977349,0.00713 c 0.466202,0.034836 0.723406,0.5047518 0.549408,1.0216505 L 23.881379,23.1651 30.254817,34.83258 c 0.145912,0.588166 -0.05924,0.984659 -0.965489,0.990835 h -4.151332 c -0.640455,-0.04048 -0.900322,-0.276377 -1.07763,-0.554679 L 17.319292,23.148943 Z"
       id="path849"
       sodipodi:nodetypes="ccccccccccc" />
  </g>
</svg>
